public class AdvanceLab3{

	public static void main(String[] args) {
		Scanner ob=new Scanner(System.in);
		int count=0;
		for(int i=0;count<=25;i++)
	    {
		        if((7*i)%2==1&&(7*i)%3==1&&(7*i)%4==1&&(7*i)%5==1&&(7*i)%6==1){
		        System.out.print(7*i+",");
		        count++;
		        }
		}
	}
}